{
    "articles":[
        {
           "auteur":"Lorem ipsum ",
           "titre":"Burkina Faso : le lieutenant-colonel Damiba déclaré 'président' par le Conseil constitutionnel",
           "description":"Le lieutenant-colonel Paul-Henri Sandaogo Damiba, qui a pris le pouvoir lors du coup d'État du 24 janvier, a été déclaré président par le Conseil constitutionnel, a appris l'AFP de sources judiciaires, jeudi. La date de la prestation de serment n'a pas été précisée.\nLe nouvel homme fort du Burkina Faso, le lieutenant-colonel Paul-Henri Sandaogo Damiba, qui a pris le pouvoir lors d'un coup d'État le 24 janvier, a été déclaré 'président' par le Conseil constitutionnel devant lequel il doit prochainement prêter serment, a appris, jeudi 10 février, l'AFP de sources judiciaires.Dans une décision qui lui a été notifiée mercredi, le Conseil constitutionnel indique que 'Paul-Henri Sandaogo Damiba, lieutenant-colonel des forces armées nationales, président du Mouvement patriotique pour la sauvegarde et la restauration (MPSR, junte au pouvoir, NDLR), est le président du (Burkina) Faso' depuis le 24 janvier. ",
           "img":"assets/actu.png",
           "datePub":"13-02-2022",
           "categorie":"Afrique"
        
            
        }, 
        {
            "auteur":"Lorem ipsum ",
            "titre":"Ligue-1 : courte victoire du PSG face à Rennes quatre jours avant de recevoir le Real",
            "description":"Lorem ipsum dolor sit amet, consectetur adipiscing elit, sed do eiusmod tempor incididunt ut labore et dolore magna aliqua. Ut enim ad minim veniam, quis nostrud exercitation ullamco laboris nisi ut aliquip ex ea commodo consequat. Duis aute irure dolor in reprehenderit in voluptate velit esse cillum dolore eu fugiat nulla pariatur. Excepteur sint occaecat cupidatat non proident, sunt in culpa qui officia deserunt mollit anim id est laborum.",
            "img":"assets/paris.png",
            "datePub":"13-02-2022",
            "categorie":"Sport"
             
         }, 
         {
            "auteur":"Lorem ipsum ",
            "titre":"JO-2022 : le Français Quentin Fillon Maillet brille en argent sur le sprint au Biathlon",
            "description":"Lorem ipsum dolor sit amet, consectetur adipiscing elit, sed do eiusmod tempor incididunt ut labore et dolore magna aliqua. Ut enim ad minim veniam, quis nostrud exercitation ullamco laboris nisi ut aliquip ex ea commodo consequat. Duis aute irure dolor in reprehenderit in voluptate velit esse cillum dolore eu fugiat nulla pariatur. Excepteur sint occaecat cupidatat non proident, sunt in culpa qui officia deserunt mollit anim id est laborum.",
            "img":"assets/jo.png",
            "datePub":"13-02-2022",
            "categorie":"Sport"
             
         }, 
         {
            "auteur":"Lorem ipsum ",
            "titre":"Orelsan et Clara Luciani grands gagnants des Victoires de la musique 2022",
            "description":"Lorem ipsum dolor sit amet, consectetur adipiscing elit, sed do eiusmod tempor incididunt ut labore et dolore magna aliqua. Ut enim ad minim veniam, quis nostrud exercitation ullamco laboris nisi ut aliquip ex ea commodo consequat. Duis aute irure dolor in reprehenderit in voluptate velit esse cillum dolore eu fugiat nulla pariatur. Excepteur sint occaecat cupidatat non proident, sunt in culpa qui officia deserunt mollit anim id est laborum.",
            "img":"assets/orelsan.png",
            "datePub":"13-02-2022",
            "categorie":"Musique"
             
         },
         {
            "auteur":"Lorem ipsum ",
            "titre":"Covid-19 : allègement du protocole sanitaire à l'école après les vacances d'hiver",
            "description":"Lorem ipsum dolor sit amet, consectetur adipiscing elit, sed do eiusmod tempor incididunt ut labore et dolore magna aliqua. Ut enim ad minim veniam, quis nostrud exercitation ullamco laboris nisi ut aliquip ex ea commodo consequat. Duis aute irure dolor in reprehenderit in voluptate velit esse cillum dolore eu fugiat nulla pariatur. Excepteur sint occaecat cupidatat non proident, sunt in culpa qui officia deserunt mollit anim id est laborum.",
            "img":"assets/covid.png",
            "datePub":"13-02-2022",
            "categorie":"Santé"
             
         },
         {
            "auteur":"Lorem ipsum ",
            "titre":"CAN-2022 : premières réactions des joueurs et des supporters après le sacre des Lions du Sénégal",
            "description":"Lorem ipsum dolor sit amet, consectetur adipiscing elit, sed do eiusmod tempor incididunt ut labore et dolore magna aliqua. Ut enim ad minim veniam, quis nostrud exercitation ullamco laboris nisi ut aliquip ex ea commodo consequat. Duis aute irure dolor in reprehenderit in voluptate velit esse cillum dolore eu fugiat nulla pariatur. Excepteur sint occaecat cupidatat non proident, sunt in culpa qui officia deserunt mollit anim id est laborum.",
            "img":"assets/can.png",
            "datePub":"13-02-2022",
            "categorie":"Sport"
             
         }
         ,
         {
            "auteur":"Lorem ipsum ",
            "titre":"En Libye, le Parlement défie le gouvernement avec un nouveau Premier ministre",
            "description":"Lorem ipsum dolor sit amet, consectetur adipiscing elit, sed do eiusmod tempor incididunt ut labore et dolore magna aliqua. Ut enim ad minim veniam, quis nostrud exercitation ullamco laboris nisi ut aliquip ex ea commodo consequat. Duis aute irure dolor in reprehenderit in voluptate velit esse cillum dolore eu fugiat nulla pariatur. Excepteur sint occaecat cupidatat non proident, sunt in culpa qui officia deserunt mollit anim id est laborum.",
            "img":"assets/Libye.png",
            "datePub":"13-02-2022",
            "categorie":"Afrique"
             
         }
        
    ],
    "actualite":[
      {
         "auteur":"Lorem ipsum ",
         "titre":"Burkina Faso : le lieutenant-colonel Damiba déclaré 'président' par le Conseil constitutionnel",
         "description":"Le lieutenant-colonel Paul-Henri Sandaogo Damiba, qui a pris le pouvoir lors du coup d'État du 24 janvier, a été déclaré président par le Conseil constitutionnel, a appris l'AFP de sources judiciaires, jeudi. La date de la prestation de serment n'a pas été précisée.\nLe nouvel homme fort du Burkina Faso, le lieutenant-colonel Paul-Henri Sandaogo Damiba, qui a pris le pouvoir lors d'un coup d'État le 24 janvier, a été déclaré 'président' par le Conseil constitutionnel devant lequel il doit prochainement prêter serment, a appris, jeudi 10 février, l'AFP de sources judiciaires.Dans une décision qui lui a été notifiée mercredi, le Conseil constitutionnel indique que 'Paul-Henri Sandaogo Damiba, lieutenant-colonel des forces armées nationales, président du Mouvement patriotique pour la sauvegarde et la restauration (MPSR, junte au pouvoir, NDLR), est le président du (Burkina) Faso' depuis le 24 janvier. ",
         "img":"assets/actu.png",
         "datePub":"13-02-2022",
         "categorie":"Santé"
          
      },
      {
         "auteur":"Lorem ipsum ",
         "titre":"Covid-19 : allègement du protocole sanitaire à l'école après les vacances d'hiver",
         "description":"Lorem ipsum dolor sit amet, consectetur adipiscing elit, sed do eiusmod tempor incididunt ut labore et dolore magna aliqua. Ut enim ad minim veniam, quis nostrud exercitation ullamco laboris nisi ut aliquip ex ea commodo consequat. Duis aute irure dolor in reprehenderit in voluptate velit esse cillum dolore eu fugiat nulla pariatur. Excepteur sint occaecat cupidatat non proident, sunt in culpa qui officia deserunt mollit anim id est laborum.",
         "img":"assets/covid.png",
         "datePub":"13-02-2022",
         "categorie":"Santé"
          
      },
      {
         "auteur":"Lorem ipsum ",
         "titre":"CAN-2022 : premières réactions des joueurs et des supporters après le sacre des Lions du Sénégal",
         "description":"Lorem ipsum dolor sit amet, consectetur adipiscing elit, sed do eiusmod tempor incididunt ut labore et dolore magna aliqua. Ut enim ad minim veniam, quis nostrud exercitation ullamco laboris nisi ut aliquip ex ea commodo consequat. Duis aute irure dolor in reprehenderit in voluptate velit esse cillum dolore eu fugiat nulla pariatur. Excepteur sint occaecat cupidatat non proident, sunt in culpa qui officia deserunt mollit anim id est laborum.",
         "img":"assets/can.png",
         "datePub":"13-02-2022",
         "categorie":"Sport"
          
      }
      
  ],
  "categorie":[
   {
      "nomCategorie":"Afrique"
   },
    {
       "nomCategorie":"Sport"
    },
    {
      "nomCategorie":"Musique"
   },
   {
      "nomCategorie":"Santé"
   }
  
    
]
}